rspec2mspct. photobiologyInOut 0.4.7
…
levels(teal.spct[["spct.idx"]])

 [1] "Acrecca-1"  "Acrecca-2"  "Acrecca-3"  "Acrecca-4"  "Acrecca-5"  "Acrecca-6" 
 [7] "Acrecca-7"  "Acrecca-8"  "Acrecca-9"  "Acrecca-10" "Acrecca-11" "Acrecca-12"

angles <- seq(from = 15, to = 75, by = 5) # from teal's documentation
teal.spct[["angle"]] <- angles[as.numeric(teal.spct[["spct.idx"]])]
teal.spct

Object: reflector_spct [4,812 x 4]
containing 12 spectra in long form
Wavelength range 300 to 700 nm, step 1 nm 

# A tibble: 4,812 x 4
   w.length      Rfr  spct.idx angle
      <int>    <dbl>    <fctr> <dbl>
1       300 0.223388 Acrecca-1    15
2       301 0.221828 Acrecca-1    15
3       302 0.210080 Acrecca-1    15
4       303 0.215870 Acrecca-1    15
5       304 0.213067 Acrecca-1    15
6       305 0.218222 Acrecca-1    15
7       306 0.200616 Acrecca-1    15
8       307 0.222068 Acrecca-1    15
9       308 0.212346 Acrecca-1    15
10      309 0.215332 Acrecca-1    15
# ... with 4,802 more rows
…
